Verilog_First/simulation/qsim/Verilog_First.msim.vcd
$comment
	File created using the following command:
		vcd file Verilog_First.msim.vcd -direction
$end
$date
	Tue Jan 01 18:39:49 2019
$end
$version
	ModelSim Version 10.1d
$end
$timescale
	1ps
$end
$scope module Verilog_First_vlg_vec_tst $end
$var reg 1 ! CLK_50M $end
$var reg 1 " RST_N $end
$var wire 1 # LED1 $end
$var wire 1 $ sampler $end
$scope module i1 $end
$var wire 1 % gnd $end
$var wire 1 & vcc $end
$var wire 1 ' unknown $end
$var tri1 1 ( devclrn $end
$var tri1 1 ) devpor $end
$var tri1 1 * devoe $end
$var wire 1 + LED1~output_o $end
$var wire 1 , CLK_50M~input_o $end
$var wire 1 - CLK_50M~inputclkctrl_outclk $end
$var wire 1 . Add0~0_combout $end
$var wire 1 / RST_N~input_o $end
$var wire 1 0 Add0~1 $end
$var wire 1 1 Add0~2_combout $end
$var wire 1 2 time_cnt_n[1]~2_combout $end
$var wire 1 3 Add0~3 $end
$var wire 1 4 Add0~4_combout $end
$var wire 1 5 Equal0~7_combout $end
$var wire 1 6 Add0~5 $end
$var wire 1 7 Add0~6_combout $end
$var wire 1 8 Add0~7 $end
$var wire 1 9 Add0~8_combout $end
$var wire 1 : time_cnt_n[4]~1_combout $end
$var wire 1 ; Add0~9 $end
$var wire 1 < Add0~10_combout $end
$var wire 1 = time_cnt_n[5]~0_combout $end
$var wire 1 > Add0~11 $end
$var wire 1 ? Add0~12_combout $end
$var wire 1 @ Add0~13 $end
$var wire 1 A Add0~14_combout $end
$var wire 1 B Add0~15 $end
$var wire 1 C Add0~16_combout $end
$var wire 1 D Add0~17 $end
$var wire 1 E Add0~18_combout $end
$var wire 1 F Add0~19 $end
$var wire 1 G Add0~20_combout $end
$var wire 1 H Equal0~5_combout $end
$var wire 1 I Equal0~6_combout $end
$var wire 1 J Add0~21 $end
$var wire 1 K Add0~22_combout $end
$var wire 1 L Add0~23 $end
$var wire 1 M Add0~24_combout $end
$var wire 1 N Add0~25 $end
$var wire 1 O Add0~26_combout $end
$var wire 1 P Add0~27 $end
$var wire 1 Q Add0~28_combout $end
$var wire 1 R Equal0~3_combout $end
$var wire 1 S Add0~29 $end
$var wire 1 T Add0~30_combout $end
$var wire 1 U Add0~31 $end
$var wire 1 V Add0~32_combout $end
$var wire 1 W Add0~33 $end
$var wire 1 X Add0~34_combout $end
$var wire 1 Y Add0~35 $end
$var wire 1 Z Add0~36_combout $end
$var wire 1 [ Add0~37 $end
$var wire 1 \ Add0~38_combout $end
$var wire 1 ] Add0~39 $end
$var wire 1 ^ Add0~40_combout $end
$var wire 1 _ Add0~41 $end
$var wire 1 ` Add0~42_combout $end
$var wire 1 a Add0~43 $end
$var wire 1 b Add0~44_combout $end
$var wire 1 c Add0~45 $end
$var wire 1 d Add0~46_combout $end
$var wire 1 e Add0~47 $end
$var wire 1 f Add0~48_combout $end
$var wire 1 g Add0~49 $end
$var wire 1 h Add0~50_combout $end
$var wire 1 i Add0~51 $end
$var wire 1 j Add0~52_combout $end
$var wire 1 k Equal0~0_combout $end
$var wire 1 l Equal0~2_combout $end
$var wire 1 m Equal0~1_combout $end
$var wire 1 n Equal0~4_combout $end
$var wire 1 o Equal0~8_combout $end
$var wire 1 p led_reg~0_combout $end
$var wire 1 q led_reg~q $end
$var wire 1 r time_cnt [26] $end
$var wire 1 s time_cnt [25] $end
$var wire 1 t time_cnt [24] $end
$var wire 1 u time_cnt [23] $end
$var wire 1 v time_cnt [22] $end
$var wire 1 w time_cnt [21] $end
$var wire 1 x time_cnt [20] $end
$var wire 1 y time_cnt [19] $end
$var wire 1 z time_cnt [18] $end
$var wire 1 { time_cnt [17] $end
$var wire 1 | time_cnt [16] $end
$var wire 1 } time_cnt [15] $end
$var wire 1 ~ time_cnt [14] $end
$var wire 1 !! time_cnt [13] $end
$var wire 1 "! time_cnt [12] $end
$var wire 1 #! time_cnt [11] $end
$var wire 1 $! time_cnt [10] $end
$var wire 1 %! time_cnt [9] $end
$var wire 1 &! time_cnt [8] $end
$var wire 1 '! time_cnt [7] $end
$var wire 1 (! time_cnt [6] $end
$var wire 1 )! time_cnt [5] $end
$var wire 1 *! time_cnt [4] $end
$var wire 1 +! time_cnt [3] $end
$var wire 1 ,! time_cnt [2] $end
$var wire 1 -! time_cnt [1] $end
$var wire 1 .! time_cnt [0] $end
$upscope $end
$upscope $end
$enddefinitions $end
#0
$dumpvars
0!
1"
x#
x$
0%
1&
x'
1(
1)
1*
x+
0,
x-
x.
1/
x0
x1
x2
x3
x4
x5
x6
x7
x8
x9
x:
x;
x<
x=
x>
x?
x@
xA
xB
xC
xD
xE
xF
xG
xH
xI
xJ
xK
xL
xM
xN
xO
xP
xQ
xR
xS
xT
xU
xV
xW
xX
xY
xZ
x[
x\
x]
x^
x_
x`
xa
xb
xc
xd
xe
xf
xg
xh
xi
xj
xk
xl
xm
xn
xo
xp
0q
0.!
0-!
0,!
0+!
0*!
0)!
0(!
0'!
0&!
0%!
0$!
0#!
0"!
0!!
0~
0}
0|
0{
0z
0y
0x
0w
0v
0u
0t
0s
0r
$end
#189
0-
#843
0c
#844
0_
#845
0W
#850
0[
#855
0S
#856
0;
#857
0@
#860
0N
00
#861
0J
0D
06
#862
0I
#863
0g
#865
05
#891
1l
1m
#915
1.
#985
1U
#986
1]
#988
1Y
#990
1a
#997
18
#999
1P
1L
13
#1000
1F
#1001
1B
1>
#1002
1i
1e
#1091
1k
#1298
1R
#1316
1H
#1420
0d
#1421
0`
#1422
0X
#1427
0\
#1432
0T
#1433
0<
#1434
0A
#1437
01
0O
#1438
07
0E
0K
#1440
0h
#1443
0o
#1562
0V
#1563
0^
#1565
0Z
#1567
0b
#1574
09
#1576
04
0M
0Q
#1577
0G
#1578
0?
0C
#1579
0f
0j
#1880
0p
#2015
02
#2153
0:
#2176
1n
#2209
0=
#5599
0+
0#
#10000
1!
0$
#10764
1,
#10964
1-
#13085
1.!
#13918
0.
#13941
15
#13998
10
#14605
11
#15169
12
#20000
0!
1$
#20811
0,
#21000
0-
#30000
1!
0$
#30764
1,
#30964
1-
#33085
0.!
1-!
#33864
03
#33930
01
#33945
00
#33950
05
#34000
1.
#34018
13
#34508
02
#34552
11
#35116
12
#40000
0!
1$
#40811
0,
#41000
0-
#50000
1!
0$
#50764
1,
#50964
1-
#53085
1.!
#53918
0.
#53998
10
#54071
03
#54575
01
#54678
14
#55153
02
#60000
0!
1$
#60811
0,
#61000
0-
#70000
1!
0$
#70764
1,
#70964
1-
#73085
0.!
0-!
1,!
#73918
04
#73945
00
#73998
16
#74000
1.
#74084
13
#74157
06
#74691
14
#80000
0!
1$
#80811
0,
#81000
0-
#90000
1!
0$
#90764
1,
#90964
1-
#93085
1.!
#93918
0.
#93998
10
#94605
11
#95169
12
#100000
0!
1$
#100811
0,
#101000
0-
#110000
1!
0$
#110764
1,
#110964
1-
#113085
0.!
1-!
#113864
03
#113930
01
#113937
16
#113945
00
#114000
1.
#114018
13
#114091
06
#114508
02
#114552
11
#115116
12
#120000
0!
1$
#120811
0,
#121000
0-
#130000
1!
0$
#130764
1,
#130964
1-
#133085
1.!
#133918
0.
#133998
10
#134071
03
#134144
16
#134575
01
#134648
04
#134751
17
#135153
02
#140000
0!
1$
#140811
0,
#141000
0-
#150000
1!
0$
#150764
1,
#150964
1-
#153085
0.!
0-!
0,!
1+!
#153863
08
#153928
07
#153945
00
#153946
06
#154000
1.
#154001
14
#154019
18
#154084
13
#154553
17
#154661
04
#160000
0!
1$
#160811
0,
#161000
0-
#170000
1!
0$
#170764
1,
#170964
1-
#173085
1.!
#173918
0.
#173941
15
#173998
10
#174605
11
#175169
12
#180000
0!
1$
#180811
0,
#181000
0-
#190000
1!
0$
#190764
1,
#190964
1-
#193085
0.!
1-!
#193864
03
#193930
01
#193945
00
#193950
05
#194000
1.
#194018
13
#194508
02
#194552
11
#195116
12
#200000
0!
1$
#200811
0,
#201000
0-
#210000
1!
0$
#210764
1,
#210964
1-
#213085
1.!
#213918
0.
#213998
10
#214071
03
#214575
01
#214678
14
#215153
02
#220000
0!
1$
#220811
0,
#221000
0-
#230000
1!
0$
#230764
1,
#230964
1-
#233085
0.!
0-!
1,!
#233918
04
#233945
00
#233998
16
#234000
1.
#234071
08
#234084
13
#234157
06
#234230
18
#234691
14
#240000
0!
1$
#240811
0,
#241000
0-
#250000
1!
0$
#250764
1,
#250964
1-
#253085
1.!
#253918
0.
#253998
10
#254605
11
#255169
12
#260000
0!
1$
#260811
0,
#261000
0-
#270000
1!
0$
#270764
1,
#270964
1-
#273085
0.!
1-!
#273864
03
#273930
01
#273937
16
#273945
00
#274000
1.
#274010
08
#274018
13
#274091
06
#274164
18
#274508
02
#274552
11
#275116
12
#280000
0!
1$
#280811
0,
#281000
0-
#290000
1!
0$
#290764
1,
#290964
1-
#293085
1.!
#293918
0.
#293998
10
#294071
03
#294144
16
#294217
08
#294575
01
#294648
04
#294721
07
#294824
19
#295153
02
#295388
1:
#300000
0!
1$
#300811
0,
#301000
0-
#310000
1!
0$
#310764
1,
#310964
1-
#313085
0.!
0-!
0,!
0+!
1*!
#313917
09
#313945
00
#313946
06
#314000
1.
#314001
14
#314009
1;
#314082
18
#314084
13
#314155
0;
#314496
0:
#314661
04
#314689
19
#315253
1:
#320000
0!
1$
#320811
0,
#321000
0-
#330000
1!
0$
#330764
1,
#330964
1-
#333085
1.!
#333918
0.
#333941
15
#333998
10
#334605
11
#335169
12
#340000
0!
1$
#340811
0,
#341000
0-
#350000
1!
0$
#350764
1,
#350964
1-
#353085
0.!
1-!
#353864
03
#353930
01
#353945
00
#353950
05
#354000
1.
#354018
13
#354508
02
#354552
11
#355116
12
#360000
0!
1$
#360811
0,
#361000
0-
#370000
1!
0$
#370764
1,
#370964
1-
#373085
1.!
#373918
0.
#373998
10
#374071
03
#374575
01
#374678
14
#375153
02
#380000
0!
1$
#380811
0,
#381000
0-
#390000
1!
0$
#390764
1,
#390964
1-
#393085
0.!
0-!
1,!
#393918
04
#393945
00
#393998
16
#394000
1.
#394084
13
#394157
06
#394691
14
#400000
0!
1$
#400811
0,
#401000
0-
#410000
1!
0$
#410764
1,
#410964
1-
#413085
1.!
#413918
0.
#413998
10
#414605
11
#415169
12
#420000
0!
1$
#420811
0,
#421000
0-
#430000
1!
0$
#430764
1,
#430964
1-
#433085
0.!
1-!
#433864
03
#433930
01
#433937
16
#433945
00
#434000
1.
#434018
13
#434091
06
#434508
02
#434552
11
#435116
12
#440000
0!
1$
#440811
0,
#441000
0-
#450000
1!
0$
#450764
1,
#450964
1-
#453085
1.!
#453918
0.
#453998
10
#454071
03
#454144
16
#454575
01
#454648
04
#454751
17
#455153
02
#460000
0!
1$
#460811
0,
#461000
0-
#470000
1!
0$
#470764
1,
#470964
1-
#473085
0.!
0-!
0,!
1+!
#473863
08
#473928
07
#473936
1;
#473945
00
#473946
06
#474000
1.
#474001
14
#474019
18
#474084
13
#474092
0;
#474553
17
#474661
04
#480000
0!
1$
#480811
0,
#481000
0-
#490000
1!
0$
#490764
1,
#490964
1-
#493085
1.!
#493918
0.
#493941
15
#493998
10
#494605
11
#495169
12
#500000
0!
1$
#500811
0,
#501000
0-
#510000
1!
0$
#510764
1,
#510964
1-
#513085
0.!
1-!
#513864
03
#513930
01
#513945
00
#513950
05
#514000
1.
#514018
13
#514508
02
#514552
11
#515116
12
#520000
0!
1$
#520811
0,
#521000
0-
#530000
1!
0$
#530764
1,
#530964
1-
#533085
1.!
#533918
0.
#533998
10
#534071
03
#534575
01
#534678
14
#535153
02
#540000
0!
1$
#540811
0,
#541000
0-
#550000
1!
0$
#550764
1,
#550964
1-
#553085
0.!
0-!
1,!
#553918
04
#553945
00
#553998
16
#554000
1.
#554071
08
#554084
13
#554144
1;
#554157
06
#554230
18
#554303
0;
#554691
14
#560000
0!
1$
#560811
0,
#561000
0-
#570000
1!
0$
#570764
1,
#570964
1-
#573085
1.!
#573918
0.
#573998
10
#574605
11
#575169
12
#580000
0!
1$
#580811
0,
#581000
0-
#590000
1!
0$
#590764
1,
#590964
1-
#593085
0.!
1-!
#593864
03
#593930
01
#593937
16
#593945
00
#594000
1.
#594010
08
#594018
13
#594083
1;
#594091
06
#594164
18
#594237
0;
#594508
02
#594552
11
#595116
12
#600000
0!
1$
#600811
0,
#601000
0-
#610000
1!
0$
#610764
1,
#610964
1-
#613085
1.!
#613918
0.
#613998
10
#614071
03
#614144
16
#614217
08
#614290
1;
#614575
01
#614648
04
#614721
07
#614794
09
#614897
1<
#615153
02
#615373
0:
#615647
1=
#620000
0!
1$
#620811
0,
#621000
0-
#630000
1!
0$
#630764
1,
#630964
1-
#633085
0.!
0-!
0,!
0+!
0*!
1)!
#633866
0>
#633932
0<
#633941
0;
#633945
00
#633946
06
#633992
19
#634000
1.
#634001
14
#634014
1>
#634082
18
#634084
13
#634548
1<
#634556
1:
#634659
09
#634661
04
#634708
0=
#635238
0:
#635298
1=
#640000
0!
1$
#640811
0,
#641000
0-
#650000
1!
0$
#650764
1,
#650964
1-
#653085
1.!
#653918
0.
#653941
15
#653998
10
#654605
11
#655169
12
#660000
0!
1$
#660811
0,
#661000
0-
#670000
1!
0$
#670764
1,
#670964
1-
#673085
0.!
1-!
#673864
03
#673930
01
#673945
00
#673950
05
#674000
1.
#674018
13
#674508
02
#674552
11
#675116
12
#680000
0!
1$
#680811
0,
#681000
0-
#690000
1!
0$
#690764
1,
#690964
1-
#693085
1.!
#693918
0.
#693998
10
#694071
03
#694575
01
#694678
14
#695153
02
#700000
0!
1$
#700811
0,
#701000
0-
#710000
1!
0$
#710764
1,
#710964
1-
#713085
0.!
0-!
1,!
#713918
04
#713945
00
#713998
16
#714000
1.
#714084
13
#714157
06
#714691
14
#720000
0!
1$
#720811
0,
#721000
0-
#730000
1!
0$
#730764
1,
#730964
1-
#733085
1.!
#733918
0.
#733998
10
#734605
11
#735169
12
#740000
0!
1$
#740811
0,
#741000
0-
#750000
1!
0$
#750764
1,
#750964
1-
#753085
0.!
1-!
#753864
03
#753930
01
#753937
16
#753945
00
#754000
1.
#754018
13
#754091
06
#754508
02
#754552
11
#755116
12
#760000
0!
1$
#760811
0,
#761000
0-
#770000
1!
0$
#770764
1,
#770964
1-
#773085
1.!
#773918
0.
#773998
10
#774071
03
#774144
16
#774575
01
#774648
04
#774751
17
#775153
02
#780000
0!
1$
#780811
0,
#781000
0-
#790000
1!
0$
#790764
1,
#790964
1-
#793085
0.!
0-!
0,!
1+!
#793863
08
#793928
07
#793945
00
#793946
06
#794000
1.
#794001
14
#794019
18
#794084
13
#794553
17
#794661
04
#800000
0!
1$
#800811
0,
#801000
0-
#810000
1!
0$
#810764
1,
#810964
1-
#813085
1.!
#813918
0.
#813941
15
#813998
10
#814605
11
#815169
12
#820000
0!
1$
#820811
0,
#821000
0-
#830000
1!
0$
#830764
1,
#830964
1-
#833085
0.!
1-!
#833864
03
#833930
01
#833945
00
#833950
05
#834000
1.
#834018
13
#834508
02
#834552
11
#835116
12
#840000
0!
1$
#840811
0,
#841000
0-
#850000
1!
0$
#850764
1,
#850964
1-
#853085
1.!
#853918
0.
#853998
10
#854071
03
#854575
01
#854678
14
#855153
02
#860000
0!
1$
#860811
0,
#861000
0-
#870000
1!
0$
#870764
1,
#870964
1-
#873085
0.!
0-!
1,!
#873918
04
#873945
00
#873998
16
#874000
1.
#874071
08
#874084
13
#874157
06
#874230
18
#874691
14
#880000
0!
1$
#880811
0,
#881000
0-
#890000
1!
0$
#890764
1,
#890964
1-
#893085
1.!
#893918
0.
#893998
10
#894605
11
#895169
12
#900000
0!
1$
#900811
0,
#901000
0-
#910000
1!
0$
#910764
1,
#910964
1-
#913085
0.!
1-!
#913864
03
#913930
01
#913937
16
#913945
00
#914000
1.
#914010
08
#914018
13
#914091
06
#914164
18
#914508
02
#914552
11
#915116
12
#920000
0!
1$
#920811
0,
#921000
0-
#930000
1!
0$
#930764
1,
#930964
1-
#933085
1.!
#933918
0.
#933998
10
#934071
03
#934144
16
#934217
08
#934575
01
#934648
04
#934721
07
#934824
19
#935153
02
#935388
1:
#940000
0!
1$
#940811
0,
#941000
0-
#950000
1!
0$
#950764
1,
#950964
1-
#953085
0.!
0-!
0,!
0+!
1*!
#953917
09
#953945
00
#953946
06
#954000
1.
#954001
14
#954009
1;
#954082
0>
18
#954084
13
#954155
0;
#954157
1I
#954228
1>
#954496
0:
#954661
04
#954689
19
#955253
1:
#960000
0!
1$
#960811
0,
#961000
0-
#970000
1!
0$
#970764
1,
#970964
1-
#973085
1.!
#973918
0.
#973941
15
#973998
10
#974605
11
#974613
1o
#975054
1p
#975297
0:
0=
#980000
0!
1$
#980811
0,
#981000
0-
#990000
1!
0$
#990764
1,
#990964
1-
#993085
0.!
0*!
0)!
#993612
1q
#993945
00
#993947
0I
#993950
05
#993993
09
#994000
1.
#994008
0<
#994094
0p
#994522
01
#994528
0o
#994987
1p
#999456
1+
1#
#1000000
0!
1$
#1000811
0,
#1001000
0-
#1010000
1!
0$
#1010764
1,
#1010964
1-
#1013085
1.!
#1013918
0.
#1013941
15
#1013998
10
#1014605
11
#1015169
12
#1020000
0!
1$
#1020811
0,
#1021000
0-
#1030000
1!
0$
#1030764
1,
#1030964
1-
#1033085
0.!
1-!
#1033864
03
#1033930
01
#1033945
00
#1033950
05
#1034000
1.
#1034018
13
#1034508
02
#1034552
11
#1035116
12
#1040000
0!
1$
#1040811
0,
#1041000
0-
#1050000
1!
0$
#1050764
1,
#1050964
1-
#1053085
1.!
#1053918
0.
#1053998
10
#1054071
03
#1054575
01
#1054678
14
#1055153
02
#1060000
0!
1$
#1060811
0,
#1061000
0-
#1070000
1!
0$
#1070764
1,
#1070964
1-
#1073085
0.!
0-!
1,!
#1073918
04
#1073945
00
#1073998
16
#1074000
1.
#1074084
13
#1074157
06
#1074691
14
#1080000
0!
1$
#1080811
0,
#1081000
0-
#1090000
1!
0$
#1090764
1,
#1090964
1-
#1093085
1.!
#1093918
0.
#1093998
10
#1094605
11
#1095169
12
#1100000
0!
1$
#1100811
0,
#1101000
0-
#1110000
1!
0$
#1110764
1,
#1110964
1-
#1113085
0.!
1-!
#1113864
03
#1113930
01
#1113937
16
#1113945
00
#1114000
1.
#1114018
13
#1114091
06
#1114508
02
#1114552
11
#1115116
12
#1120000
0!
1$
#1120811
0,
#1121000
0-
#1130000
1!
0$
#1130764
1,
#1130964
1-
#1133085
1.!
#1133918
0.
#1133998
10
#1134071
03
#1134144
16
#1134575
01
#1134648
04
#1134751
17
#1135153
02
#1140000
0!
1$
#1140811
0,
#1141000
0-
#1150000
1!
0$
#1150764
1,
#1150964
1-
#1153085
0.!
0-!
0,!
1+!
#1153863
08
#1153928
07
#1153945
00
#1153946
06
#1154000
1.
#1154001
14
#1154019
18
#1154084
13
#1154553
17
#1154661
04
#1160000
0!
1$
#1160811
0,
#1161000
0-
#1170000
1!
0$
#1170764
1,
#1170964
1-
#1173085
1.!
#1173918
0.
#1173941
15
#1173998
10
#1174605
11
#1175169
12
#1180000
0!
1$
#1180811
0,
#1181000
0-
#1190000
1!
0$
#1190764
1,
#1190964
1-
#1193085
0.!
1-!
#1193864
03
#1193930
01
#1193945
00
#1193950
05
#1194000
1.
#1194018
13
#1194508
02
#1194552
11
#1195116
12
#1200000
0!
1$
#1200811
0,
#1201000
0-
#1210000
1!
0$
#1210764
1,
#1210964
1-
#1213085
1.!
#1213918
0.
#1213998
10
#1214071
03
#1214575
01
#1214678
14
#1215153
02
#1220000
0!
1$
#1220811
0,
#1221000
0-
#1230000
1!
0$
#1230764
1,
#1230964
1-
#1233085
0.!
0-!
1,!
#1233918
04
#1233945
00
#1233998
16
#1234000
1.
#1234071
08
#1234084
13
#1234157
06
#1234230
18
#1234691
14
#1240000
0!
1$
#1240811
0,
#1241000
0-
#1250000
1!
0$
#1250764
1,
#1250964
1-
#1253085
1.!
#1253918
0.
#1253998
10
#1254605
11
#1255169
12
#1260000
0!
1$
#1260811
0,
#1261000
0-
#1270000
1!
0$
#1270764
1,
#1270964
1-
#1273085
0.!
1-!
#1273864
03
#1273930
01
#1273937
16
#1273945
00
#1274000
1.
#1274010
08
#1274018
13
#1274091
06
#1274164
18
#1274508
02
#1274552
11
#1275116
12
#1280000
0!
1$
#1280811
0,
#1281000
0-
#1290000
1!
0$
#1290764
1,
#1290964
1-
#1293085
1.!
#1293918
0.
#1293998
10
#1294071
03
#1294144
16
#1294217
08
#1294575
01
#1294648
04
#1294721
07
#1294824
19
#1295153
02
#1295388
1:
#1300000
0!
1$
#1300811
0,
#1301000
0-
#1310000
1!
0$
#1310764
1,
#1310964
1-
#1313085
0.!
0-!
0,!
0+!
1*!
#1313917
09
#1313945
00
#1313946
06
#1314000
1.
#1314001
14
#1314009
1;
#1314082
18
#1314084
13
#1314155
0;
#1314496
0:
#1314661
04
#1314689
19
#1315253
1:
#1320000
0!
1$
#1320811
0,
#1321000
0-
#1330000
1!
0$
#1330764
1,
#1330964
1-
#1333085
1.!
#1333918
0.
#1333941
15
#1333998
10
#1334605
11
#1335169
12
#1340000
0!
1$
#1340811
0,
#1341000
0-
#1350000
1!
0$
#1350764
1,
#1350964
1-
#1353085
0.!
1-!
#1353864
03
#1353930
01
#1353945
00
#1353950
05
#1354000
1.
#1354018
13
#1354508
02
#1354552
11
#1355116
12
#1360000
0!
1$
#1360811
0,
#1361000
0-
#1370000
1!
0$
#1370764
1,
#1370964
1-
#1373085
1.!
#1373918
0.
#1373998
10
#1374071
03
#1374575
01
#1374678
14
#1375153
02
#1380000
0!
1$
#1380811
0,
#1381000
0-
#1390000
1!
0$
#1390764
1,
#1390964
1-
#1393085
0.!
0-!
1,!
#1393918
04
#1393945
00
#1393998
16
#1394000
1.
#1394084
13
#1394157
06
#1394691
14
#1400000
0!
1$
#1400811
0,
#1401000
0-
#1410000
1!
0$
#1410764
1,
#1410964
1-
#1413085
1.!
#1413918
0.
#1413998
10
#1414605
11
#1415169
12
#1420000
0!
1$
#1420811
0,
#1421000
0-
#1430000
1!
0$
#1430764
1,
#1430964
1-
#1433085
0.!
1-!
#1433864
03
#1433930
01
#1433937
16
#1433945
00
#1434000
1.
#1434018
13
#1434091
06
#1434508
02
#1434552
11
#1435116
12
#1440000
0!
1$
#1440811
0,
#1441000
0-
#1450000
1!
0$
#1450764
1,
#1450964
1-
#1453085
1.!
#1453918
0.
#1453998
10
#1454071
03
#1454144
16
#1454575
01
#1454648
04
#1454751
17
#1455153
02
#1460000
0!
1$
#1460811
0,
#1461000
0-
#1470000
1!
0$
#1470764
1,
#1470964
1-
#1473085
0.!
0-!
0,!
1+!
#1473863
08
#1473928
07
#1473936
1;
#1473945
00
#1473946
06
#1474000
1.
#1474001
14
#1474019
18
#1474084
13
#1474092
0;
#1474553
17
#1474661
04
#1480000
0!
1$
#1480811
0,
#1481000
0-
#1490000
1!
0$
#1490764
1,
#1490964
1-
#1493085
1.!
#1493918
0.
#1493941
15
#1493998
10
#1494605
11
#1495169
12
#1500000
0!
1$
#1500811
0,
#1501000
0-
#1510000
1!
0$
#1510764
1,
#1510964
1-
#1513085
0.!
1-!
#1513864
03
#1513930
01
#1513945
00
#1513950
05
#1514000
1.
#1514018
13
#1514508
02
#1514552
11
#1515116
12
#1520000
0!
1$
#1520811
0,
#1521000
0-
#1530000
1!
0$
#1530764
1,
#1530964
1-
#1533085
1.!
#1533918
0.
#1533998
10
#1534071
03
#1534575
01
#1534678
14
#1535153
02
#1540000
0!
1$
#1540811
0,
#1541000
0-
#1550000
1!
0$
#1550764
1,
#1550964
1-
#1553085
0.!
0-!
1,!
#1553918
04
#1553945
00
#1553998
16
#1554000
1.
#1554071
08
#1554084
13
#1554144
1;
#1554157
06
#1554230
18
#1554303
0;
#1554691
14
#1560000
0!
1$
#1560811
0,
#1561000
0-
#1570000
1!
0$
#1570764
1,
#1570964
1-
#1573085
1.!
#1573918
0.
#1573998
10
#1574605
11
#1575169
12
#1580000
0!
1$
#1580811
0,
#1581000
0-
#1590000
1!
0$
#1590764
1,
#1590964
1-
#1593085
0.!
1-!
#1593864
03
#1593930
01
#1593937
16
#1593945
00
#1594000
1.
#1594010
08
#1594018
13
#1594083
1;
#1594091
06
#1594164
18
#1594237
0;
#1594508
02
#1594552
11
#1595116
12
#1600000
0!
1$
#1600811
0,
#1601000
0-
#1610000
1!
0$
#1610764
1,
#1610964
1-
#1613085
1.!
#1613918
0.
#1613998
10
#1614071
03
#1614144
16
#1614217
08
#1614290
1;
#1614575
01
#1614648
04
#1614721
07
#1614794
09
#1614897
1<
#1615153
02
#1615373
0:
#1615647
1=
#1620000
0!
1$
#1620811
0,
#1621000
0-
#1630000
1!
0$
#1630764
1,
#1630964
1-
#1633085
0.!
0-!
0,!
0+!
0*!
1)!
#1633866
0>
#1633932
0<
#1633941
0;
#1633945
00
#1633946
06
#1633992
19
#1634000
1.
#1634001
14
#1634014
1>
#1634082
18
#1634084
13
#1634548
1<
#1634556
1:
#1634659
09
#1634661
04
#1634708
0=
#1635238
0:
#1635298
1=
#1640000
0!
1$
#1640811
0,
#1641000
0-
#1650000
1!
0$
#1650764
1,
#1650964
1-
#1653085
1.!
#1653918
0.
#1653941
15
#1653998
10
#1654605
11
#1655169
12
#1660000
0!
1$
#1660811
0,
#1661000
0-
#1670000
1!
0$
#1670764
1,
#1670964
1-
#1673085
0.!
1-!
#1673864
03
#1673930
01
#1673945
00
#1673950
05
#1674000
1.
#1674018
13
#1674508
02
#1674552
11
#1675116
12
#1680000
0!
1$
#1680811
0,
#1681000
0-
#1690000
1!
0$
#1690764
1,
#1690964
1-
#1693085
1.!
#1693918
0.
#1693998
10
#1694071
03
#1694575
01
#1694678
14
#1695153
02
#1700000
0!
1$
#1700811
0,
#1701000
0-
#1710000
1!
0$
#1710764
1,
#1710964
1-
#1713085
0.!
0-!
1,!
#1713918
04
#1713945
00
#1713998
16
#1714000
1.
#1714084
13
#1714157
06
#1714691
14
#1720000
0!
1$
#1720811
0,
#1721000
0-
#1730000
1!
0$
#1730764
1,
#1730964
1-
#1733085
1.!
#1733918
0.
#1733998
10
#1734605
11
#1735169
12
#1740000
0!
1$
#1740811
0,
#1741000
0-
#1750000
1!
0$
#1750764
1,
#1750964
1-
#1753085
0.!
1-!
#1753864
03
#1753930
01
#1753937
16
#1753945
00
#1754000
1.
#1754018
13
#1754091
06
#1754508
02
#1754552
11
#1755116
12
#1760000
0!
1$
#1760811
0,
#1761000
0-
#1770000
1!
0$
#1770764
1,
#1770964
1-
#1773085
1.!
#1773918
0.
#1773998
10
#1774071
03
#1774144
16
#1774575
01
#1774648
04
#1774751
17
#1775153
02
#1780000
0!
1$
#1780811
0,
#1781000
0-
#1790000
1!
0$
#1790764
1,
#1790964
1-
#1793085
0.!
0-!
0,!
1+!
#1793863
08
#1793928
07
#1793945
00
#1793946
06
#1794000
1.
#1794001
14
#1794019
18
#1794084
13
#1794553
17
#1794661
04
#1800000
0!
1$
#1800811
0,
#1801000
0-
#1810000
1!
0$
#1810764
1,
#1810964
1-
#1813085
1.!
#1813918
0.
#1813941
15
#1813998
10
#1814605
11
#1815169
12
#1820000
0!
1$
#1820811
0,
#1821000
0-
#1830000
1!
0$
#1830764
1,
#1830964
1-
#1833085
0.!
1-!
#1833864
03
#1833930
01
#1833945
00
#1833950
05
#1834000
1.
#1834018
13
#1834508
02
#1834552
11
#1835116
12
#1840000
0!
1$
#1840811
0,
#1841000
0-
#1850000
1!
0$
#1850764
1,
#1850964
1-
#1853085
1.!
#1853918
0.
#1853998
10
#1854071
03
#1854575
01
#1854678
14
#1855153
02
#1860000
0!
1$
#1860811
0,
#1861000
0-
#1870000
1!
0$
#1870764
1,
#1870964
1-
#1873085
0.!
0-!
1,!
#1873918
04
#1873945
00
#1873998
16
#1874000
1.
#1874071
08
#1874084
13
#1874157
06
#1874230
18
#1874691
14
#1880000
0!
1$
#1880811
0,
#1881000
0-
#1890000
1!
0$
#1890764
1,
#1890964
1-
#1893085
1.!
#1893918
0.
#1893998
10
#1894605
11
#1895169
12
#1900000
0!
1$
#1900811
0,
#1901000
0-
#1910000
1!
0$
#1910764
1,
#1910964
1-
#1913085
0.!
1-!
#1913864
03
#1913930
01
#1913937
16
#1913945
00
#1914000
1.
#1914010
08
#1914018
13
#1914091
06
#1914164
18
#1914508
02
#1914552
11
#1915116
12
#1920000
0!
1$
#1920811
0,
#1921000
0-
#1930000
1!
0$
#1930764
1,
#1930964
1-
#1933085
1.!
#1933918
0.
#1933998
10
#1934071
03
#1934144
16
#1934217
08
#1934575
01
#1934648
04
#1934721
07
#1934824
19
#1935153
02
#1935388
1:
#1940000
0!
1$
#1940811
0,
#1941000
0-
#1950000
1!
0$
#1950764
1,
#1950964
1-
#1953085
0.!
0-!
0,!
0+!
1*!
#1953917
09
#1953945
00
#1953946
06
#1954000
1.
#1954001
14
#1954009
1;
#1954082
0>
18
#1954084
13
#1954155
0;
#1954157
1I
#1954228
1>
#1954496
0:
#1954661
04
#1954689
19
#1955253
1:
#1960000
0!
1$
#1960811
0,
#1961000
0-
#1970000
1!
0$
#1970764
1,
#1970964
1-
#1973085
1.!
#1973918
0.
#1973941
15
#1973998
10
#1974605
11
#1974613
1o
#1975032
0p
#1975297
0:
0=
#1980000
0!
1$
#1980811
0,
#1981000
0-
#1990000
1!
0$
#1990764
1,
#1990964
1-
#1993085
0.!
0*!
0)!
#1993612
0q
#1993945
00
#1993947
0I
#1993950
05
#1993993
09
#1994000
1.
#1994008
0<
#1994074
1p
#1994522
01
#1994528
0o
#1994965
0p
#1999211
0+
0#
#2000000
0!
1$
#2000811
0,
#2001000
0-
#2010000
1!
0$
#2010764
1,
#2010964
1-
#2013085
1.!
#2013918
0.
